DATA2002
…
<img src="lec23_files/figure-html/unnamed-chunk-6-1.png" width="864" />

---

## Outliers ?!

.pull-left[
-   There are 3 possible "outliers" (actually *bivariate* outliers, really):

```r
wolf %>% arrange(HCB-Aldrin)
```

```
## # A tibble: 30 × 3
##    Aldrin   HCB Depth   
##     <dbl> <dbl> <chr>   
##  1   6.26  3.55 Middepth
##  2   8.07  5.85 Bottom  
##  3   8.79  6.85 Bottom  
##  4   5.26  5.03 Bottom  
##  5   7.3   7.16 Bottom  
##  6   5.35  5.44 Bottom  
##  7   5.17  5.29 Surface 
##  8   3.76  3.89 Bottom  
##  9   3.81  4    Surface 
## 10   6.57  6.77 Middepth
## # … with 20 more rows
```
…
